Gráficos de tiro con R | Sergio Olmos
…
library(httr)
library(jsonlite)
library(tidyverse)

api_request <- GET("http://baloncestoenvivo.feb.es/api/ShotChart/2010150")
content_list <- content(api_request, as = "text", encoding = "UTF-8") %>%
    fromJSON

El objeto content_list es una lista con 10 elementos. La estructura de esta lista es precisamente la estructura que observamos cuando estábamos buscando el enlace de petición de la API.

shotchart_raw <- content_list$SHOTCHART$SHOTS %>%
    as.tibble() %>% 
    print()

## # A tibble: 128 x 7
##    m     t     x     y     team  player quarter
##  * <chr> <chr> <chr> <chr> <chr> <chr>  <chr>  
##  1 0     00:14 138   41    0     12     1      
##  2 1     00:54 38    102   0     11     1      
##  3 1     01:14 138   35    1     22     1      
##  4 1     01:32 211   146   0     11     1      
##  5 0     01:40 177   163   0     11     1      
##  6 1     01:49 170   164   1     22     1      
##  7 1     02:11 147   26    0     15     1      
##  8 0     02:35 134   159   1     4      1      
##  9 0     02:48 72    140   1     4      1      
## 10 1     03:28 115   163   1     7      1      
## # ... with 118 more rows
…
quarter = Cuarto del partido en el que se realizó el tiro

Observamos que todas la variables en nuestro data frame son de tipo character. Modificamos la clase de cada variable en base a lo que representa:

shotchart_df <- shotchart_raw %>%
    transmute(made = as.factor(m),
              time = parse_time(t, "%M:%S"),
              x = as.numeric(x),
              y = as.numeric(y),
              team = factor(team, labels = c("Granada", "Coruña")),
              player = as.factor(player),
              quarter = as.factor(quarter))
shotchart_df

## # A tibble: 128 x 7
##    made  time       x     y team    player quarter
##    <fct> <time> <dbl> <dbl> <fct>   <fct>  <fct>  
##  1 0     00'14"   138    41 Granada 12     1      
##  2 1     00'54"    38   102 Granada 11     1      
##  3 1     01'14"   138    35 Coruña  22     1      
##  4 1     01'32"   211   146 Granada 11     1      
##  5 0     01'40"   177   163 Granada 11     1      
##  6 1     01'49"   170   164 Coruña  22     1      
##  7 1     02'11"   147    26 Granada 15     1      
##  8 0     02'35"   134   159 Coruña  4      1      
##  9 0     02'48"    72   140 Coruña  4      1      
## 10 1     03'28"   115   163 Coruña  7      1      
## # ... with 118 more rows
…
