Análisis de los patrones de asistencias del FC Barcelona en Euroliga | Sergio Olmos
…
Obtención de los datos

Podemos obtener los datos jugada-a-jugada introduciendo el código del partido/s junto con el año de la temporada correspondiente a la función extract_pbp().

El código del partido lo podemos encontrar en la propia URL de la página del partido. Por ejemplo, el último partido que disputó el FC Barcelona en esta Euroliga en el momento de escribir esto fue contra el Bayern de Munich en la ciudad alemana. La URL para este partido en la página oficial es

https://www.euroleague.net/main/results/showgame?gamecode=219&seasoncode=E2018

Observamos que el código del partido es 219 (gamecode=219). Introduciendo este código junto con el año de inicio de esta temporada en la función extract_pbp() obtenemos los datos jugada-a-jugada de este partido en un data frame:

library(eurolig)
game_pbp <- extract_pbp(game_code = 219, season = 2018)
game_pbp

## # A tibble: 518 x 18
##    game_code play_number team_code player_name play_type time_remaining
##    <fct>           <int> <fct>     <fct>       <fct>     <chr>         
##  1 219                 2 <NA>      <NA>        BP        10:00         
##  2 219                 3 MUN       RADOSEVIC,… TPOFF     09:59         
##  3 219                 4 BAR       TOMIC, ANTE TPOFF     09:59         
##  4 219                 5 BAR       RIBAS, PAU  3FGM      09:37         
##  5 219                 6 BAR       TOMIC, ANTE AS        09:35         
##  6 219                 7 MUN       LUCIC, VLA… 2FGA      09:20         
##  7 219                 8 BAR       TOMIC, ANTE D         09:18         
##  8 219                10 BAR       PANGOS, KE… 2FGA      08:58         
##  9 219                11 MUN       LUCIC, VLA… D         08:55         
## 10 219                12 MUN       JOVIC, STE… TO        08:34         
## # … with 508 more rows, and 12 more variables: quarter <fct>,
## #   points_home <dbl>, points_away <dbl>, team_name <fct>,
## #   player_id <fct>, player_dorsal <dbl>, play_info <chr>, seconds <dbl>,
## #   home_team <fct>, away_team <fct>, home <lgl>, season <int>
…
Procedemos pues a descargar los datos de todos los partidos que ha disputado el actual FC Barcelona hasta la fecha (25 de Marzo del 2019):

pbp <- extract_team_pbp(team = "BAR", season = 2018)

Nótese que lleva un tiempo considerable obtener el data frame final. No es por el tamaño de los datos, ni por falta de optimización del código. La función está diseñada para ser lenta. En la documentación de la API de la Euroliga se indica que dejemos unos segundos entre petición y petición para no saturar el servidor.

Análisis de asistencias

Para averiguar las diferentes preguntas que mencionamos en la introducción echamos mano de la función get_assists(). Introduciendo los datos jugada-a-jugada en esta función obtenemos un data frame con el que luego podremos averiguar muchos detalles interesantes con unas pocas líneas de código. Para ello utilizaremos principalmente el paquete dplyr.

library(dplyr)
assists <- get_assists(pbp, team = "BAR")
assists

## # A tibble: 475 x 12
##    game_code season passer shooter shot_type points time_remaining quarter
##    <fct>     <fct>  <fct>  <fct>   <fct>      <dbl> <chr>          <fct>  
##  1 2         2018   HEURT… CLAVER… 2FG            1 09:43          1      
##  2 2         2018   CLAVE… TOMIC,… 2FG            2 08:39          1      
##  3 2         2018   HEURT… TOMIC,… 2FG            2 07:44          1      
##  4 2         2018   HEURT… SINGLE… 2FG            2 07:34          1      
##  5 2         2018   CLAVE… SINGLE… 2FG            3 03:19          1      
##  6 2         2018   ORIOL… SERAPH… 2FG            2 00:46          1      
##  7 2         2018   SERAP… KURIC,… 3FG            3 00:13          1      
##  8 2         2018   HEURT… ORIOLA… 2FG            2 07:08          2      
##  9 2         2018   HEURT… SERAPH… 2FG            2 04:58          2      
## 10 2         2018   BLAZI… PUSTOV… 2FG            2 01:17          2      
## # … with 465 more rows, and 4 more variables: seconds <int>, foul <lgl>,
## #   and1 <dbl>, ftm <dbl>
…
