…
Opposing team statistics when players were on the bench together.

Assists patterns

Play-by-play data allows us to find out who assists who on assisted baskets. The function getAssists() returns a data frame with the passer and the shooter (plus more contextual information) for all assisted baskets in the input play-by-play data.

I am going to use getAssists() and some data wrangling to find out the most common assists in CSKA Moscow during the two games of the 2018/2019 Final Four:

assists_csk <- getAssists(pbp = samplepbp, team = "CSK")
assists_csk %>% 
  count(passer, shooter) %>% 
  arrange(desc(n))

## # A tibble: 25 x 3
##    passer            shooter              n
##    <chr>             <chr>            <int>
##  1 CLYBURN, WILL     HIGGINS, CORY        2
##  2 DE COLO, NANDO    HACKETT, DANIEL      2
##  3 HACKETT, DANIEL   HUNTER, OTHELLO      2
##  4 RODRIGUEZ, SERGIO HINES, KYLE          2
##  5 CLYBURN, WILL     DE COLO, NANDO       1
##  6 DE COLO, NANDO    CLYBURN, WILL        1
##  7 DE COLO, NANDO    HUNTER, OTHELLO      1
##  8 DE COLO, NANDO    KURBANOV, NIKITA     1
##  9 DE COLO, NANDO    PETERS, ALEC         1
## 10 HACKETT, DANIEL   CLYBURN, WILL        1
## # … with 15 more rows
…
