…
Estadísticas del equipo rival cuando los jugadores están en el banquillo.

Patrones de asistencias

Los datos jugada a jugada nos permiten averiguar quién asiste a quién en canastas asistidas. La función getAssists() genera un data frame con el pasador y el tirador (junto con más variables) de todas las canastas asistidas en los datos jugada a jugada.

Voy a usar getAssists() y un poco de manipulación de datos para hayar las asistencias más comunes en el CSK de Moscú en los dos partidos de la Final Four 2018/2019:

assists_csk <- getAssists(pbp = samplepbp, team = "CSK")
assists_csk %>% 
  count(passer, shooter) %>% 
  arrange(desc(n))

## # A tibble: 25 x 3
##    passer            shooter              n
##    <chr>             <chr>            <int>
##  1 CLYBURN, WILL     HIGGINS, CORY        2
##  2 DE COLO, NANDO    HACKETT, DANIEL      2
##  3 HACKETT, DANIEL   HUNTER, OTHELLO      2
##  4 RODRIGUEZ, SERGIO HINES, KYLE          2
##  5 CLYBURN, WILL     DE COLO, NANDO       1
##  6 DE COLO, NANDO    CLYBURN, WILL        1
##  7 DE COLO, NANDO    HUNTER, OTHELLO      1
##  8 DE COLO, NANDO    KURBANOV, NIKITA     1
##  9 DE COLO, NANDO    PETERS, ALEC         1
## 10 HACKETT, DANIEL   CLYBURN, WILL        1
## # … with 15 more rows
…
