…
We can see that the whole pattern above can be pieced together using the following fundamental block:

Multiple multiples

multiple_multiples <- m2 %>%
    mutate(multiple_of_3 = product %% 3 == 0,
           inter = interaction(multiple_of_2, multiple_of_3))
multiple_multiples

## # A tibble: 121 x 6
##        x     y product multiple_of_2 multiple_of_3 inter    
##    <dbl> <dbl>   <dbl> <lgl>         <lgl>         <fct>    
##  1     0     0       0 TRUE          TRUE          TRUE.TRUE
##  2     0     1       0 TRUE          TRUE          TRUE.TRUE
##  3     0     2       0 TRUE          TRUE          TRUE.TRUE
##  4     0     3       0 TRUE          TRUE          TRUE.TRUE
##  5     0     4       0 TRUE          TRUE          TRUE.TRUE
##  6     0     5       0 TRUE          TRUE          TRUE.TRUE
##  7     0     6       0 TRUE          TRUE          TRUE.TRUE
##  8     0     7       0 TRUE          TRUE          TRUE.TRUE
##  9     0     8       0 TRUE          TRUE          TRUE.TRUE
## 10     0     9       0 TRUE          TRUE          TRUE.TRUE
## # ... with 111 more rows
…
