…
Data extraction

We can obtain the play-by-play data by entering the game code (or game codes) toguether with the starting year of the season we want into the extract_pbp() function.

The game code can be found in the URL of the game web page. For instance, the last game that FC Barcelona played in this Euroleague at the moment of writting was against Bayern Munich in the German city. The game URL is

https://www.euroleague.net/main/results/showgame?gamecode=219&seasoncode=E2018

We see that the game code is 219. Entering this code together with the corresponding year in extract_pbp() we obtain the play-by-play data in a tidy data frame:

library(eurolig)
game_pbp <- extract_pbp(game_code = 219, season = 2018)
game_pbp

## # A tibble: 518 x 18
##    game_code play_number team_code player_name play_type time_remaining
##    <fct>           <int> <fct>     <fct>       <fct>     <chr>         
##  1 219                 2 <NA>      <NA>        BP        10:00         
##  2 219                 3 MUN       RADOSEVIC,… TPOFF     09:59         
##  3 219                 4 BAR       TOMIC, ANTE TPOFF     09:59         
##  4 219                 5 BAR       RIBAS, PAU  3FGM      09:37         
##  5 219                 6 BAR       TOMIC, ANTE AS        09:35         
##  6 219                 7 MUN       LUCIC, VLA… 2FGA      09:20         
##  7 219                 8 BAR       TOMIC, ANTE D         09:18         
##  8 219                10 BAR       PANGOS, KE… 2FGA      08:58         
##  9 219                11 MUN       LUCIC, VLA… D         08:55         
## 10 219                12 MUN       JOVIC, STE… TO        08:34         
## # … with 508 more rows, and 12 more variables: quarter <fct>,
## #   points_home <dbl>, points_away <dbl>, team_name <fct>,
## #   player_id <fct>, player_dorsal <dbl>, play_info <chr>, seconds <dbl>,
## #   home_team <fct>, away_team <fct>, home <lgl>, season <int>
…
Let’s proceed to download the data of the games that FC Barcelona has played so far (March 25, 2019):

pbp <- extract_team_pbp(team = "BAR", season = 2018)

Note that the process takes a relatively long time to return the final data frame. This in not a bug. The function is designed to be slow. The Euroleague’s API documentation asks to leave a few second between succesive requests.

Analysis of assists

To answer the diferent questions that we mentioned in the introduction we are going to use the function get_assists(). Entering the play-by-play data into this function we obtain a data frame with detailed information about each assist recorded in these games. This resulting data frame can be used to answer many interesting questions with just few lines of code.

library(dplyr)
assists <- get_assists(pbp, team = "BAR")
assists

## # A tibble: 475 x 12
##    game_code season passer shooter shot_type points time_remaining quarter
##    <fct>     <fct>  <fct>  <fct>   <fct>      <dbl> <chr>          <fct>  
##  1 2         2018   HEURT… CLAVER… 2FG            1 09:43          1      
##  2 2         2018   CLAVE… TOMIC,… 2FG            2 08:39          1      
##  3 2         2018   HEURT… TOMIC,… 2FG            2 07:44          1      
##  4 2         2018   HEURT… SINGLE… 2FG            2 07:34          1      
##  5 2         2018   CLAVE… SINGLE… 2FG            3 03:19          1      
##  6 2         2018   ORIOL… SERAPH… 2FG            2 00:46          1      
##  7 2         2018   SERAP… KURIC,… 3FG            3 00:13          1      
##  8 2         2018   HEURT… ORIOLA… 2FG            2 07:08          2      
##  9 2         2018   HEURT… SERAPH… 2FG            2 04:58          2      
## 10 2         2018   BLAZI… PUSTOV… 2FG            2 01:17          2      
## # … with 465 more rows, and 4 more variables: seconds <int>, foul <lgl>,
## #   and1 <dbl>, ftm <dbl>
…
